…
4.  Visualiza las notas ordenadas de mayor a menor

``` r
tibble(grupo,nota) %>%                   #Unimos "Grupo" y "Nota"
  arrange(nota) %>%                     #Ordenamos de mmenor a mayor NOTAS
  mutate(Orden = 1:n())                 #Agregamos posicion
```

    ## # A tibble: 192 x 3
    ##    grupo  nota Orden
    ##    <chr> <dbl> <int>
    ##  1 B       1.7     1
    ##  2 D       2.5     2
    ##  3 D       2.6     3
    ##  4 E       2.7     4
    ##  5 E       2.9     5
    ##  6 D       2.9     6
    ##  7 A       2.9     7
    ##  8 E       3       8
    ##  9 E       3.1     9
    ## 10 C       3.2    10
    ## # ... with 182 more rows
…
    ## # A tibble: 1 x 1
    ##   `median(conc)`
    ##            <dbl>
    ## 1           24.4

4.  ¿Cuáles fueron las 10 mediciones más bajas del día?

``` r
tibble(conc) %>%                   #Unimos "Grupo" y "Nota"
  arrange(conc)
```

    ## # A tibble: 288 x 1
    ##     conc
    ##    <dbl>
    ##  1  0.93
    ##  2  1.07
    ##  3  1.77
    ##  4  2.03
    ##  5  2.58
    ##  6  2.73
    ##  7  2.75
    ##  8  2.88
    ##  9  2.88
    ## 10  2.91
    ## # ... with 278 more rows
…
