…
``` r
#Generamos vectores por el codigo de la estacion y le damos formato a la fecha
estacion<-estaciones[,codigo_n]
fecha<-estaciones[,"date"]
fecha2<-lubridate::dmy(fecha)
#Creamo un data frame con ambos vectores
  df1<-data.frame(fecha2,estacion)
```

``` r
#Seleccionamosla estacion
tibble(df1)
```

    ## # A tibble: 12,419 x 2
    ##    fecha2     estacion
    ##    <date>        <dbl>
    ##  1 1980-01-01      8.6
    ##  2 1980-01-02      4  
    ##  3 1980-01-03      8.5
    ##  4 1980-01-04      3  
    ##  5 1980-01-05      7  
    ##  6 1980-01-06      1  
    ##  7 1980-01-07      0  
    ##  8 1980-01-08      2.8
    ##  9 1980-01-09      0  
    ## 10 1980-01-10      0  
    ## # ... with 12,409 more rows
…
    missval=sum(is.na(estacion)) * 100 / n()
  ) %>% #Precipitacion acumulada mensual
  summarize(
    estacion=sum(estacion,na.rm=T),
    missval=unique(missval)
  ) %>% 
  mutate(
    estacion=ifelse(missval>=10,NA,estacion),#NA, cuando superan o son mayor a 10%
    fecha2 = as.Date(sprintf("%1$s-01",fecha2)),
    month=str_sub(fecha2,6,7)
  )
ppm
```

    ## # A tibble: 408 x 4
    ##    fecha2     estacion missval month
    ##    <date>        <dbl>   <dbl> <chr>
    ##  1 1980-01-01     87.9       0 01   
    ##  2 1980-02-01     48.3       0 02   
    ##  3 1980-03-01    128.        0 03   
    ##  4 1980-04-01     44.3       0 04   
    ##  5 1980-05-01     40         0 05   
    ##  6 1980-06-01     93.5       0 06   
    ##  7 1980-07-01     33.6       0 07   
    ##  8 1980-08-01     13         0 08   
    ##  9 1980-09-01     13.2       0 09   
    ## 10 1980-10-01    130.        0 10   
    ## # ... with 398 more rows
…
